2019out10-archer-run-b19-29-cid19-4524-snapshot	2020nov10-oc120-run6-b20-125-cid20-1203-snapshot
2020ju27-oc120-run53-b20-68-cid20-541-snapshot	2020nov10-oc120-run6-b20-125-cid20-1204-snapshot
2020ago28-oc120-run5-b20-82-cid20-815-snapshot	2020nov10-oc120-run6-b20-125-cid20-1213-snapshot
2020-09-03-oc120-run-b20-86-cid20-754-snapshot	2020nov10-oc120-run6-b20-125-cid20-1214-snapshot
2020out13-oc120-run6-b20-107-cid20-994-snapshot	2020nov10-oc120-run6-b20-125-cid20-1215-snapshot
2020ago15-run55-oc12-b20-73-cid20-624-snapshot	2020nov10-oc120-run6-b20-125-cid20-1216-snapshot
2020out17-oc120-run6-b20-109-cid20-1022-snapshot	2020nov10-oc120-run6-b20-125-cid20-1217-snapshot
2020-07-13-oc120-run-b20-60-cid20-395-snapshot	2020nov10-oc120-run6-b20-125-cid20-1206-snapshot
2020jul20-oc120-run5-b20-64-cid20-469-snapshot	2020nov10-oc120-run6-b20-125-cid20-1205-snapshot
2020jul29-oc120-run5-b20-69-cid20-481-snapshot	2020nov10-oc120-run6-b20-125-cid20-1207-snapshot
2020jul29-oc120-run5-b20-69-cid20-524-snapshot	2020nov10-oc120-run6-b20-125-cid20-1208-snapshot
2020ago28-oc120-run5-b20-84-cid20-653-snapshot	2020nov10-oc120-run6-b20-125-cid20-1210-snapshot
2020-09-03-oc120-run-b20-86-cid20-657-snapshot	2020nov10-oc120-run6-b20-125-cid20-1211-snapshot
2020-09-04-oc120-run-b20-88-cid20-705-snapshot	2020nov10-oc120-run6-b20-125-cid20-1212-snapshot
2020out17-oc120-run6-b20-109-cid20-1024-snapshot	2020nov12-oc120-run6-b20-126-cid20-1163-snapshot
2020out06-oc120-run6-b20-103-cid20-936-snapshot	2020nov12-oc120-run6-b20-126-cid20-1165-snapshot
2020out06-oc120-run6-b20-103-cid20-946-snapshot	2020nov12-oc120-run6-b20-126-cid20-1168-snapshot
2020out17-oc120-run6-b20-109-cid20-1015-snapshot	2020nov12-oc120-run6-b20-126-cid20-1172-snapshot
2020out09-oc120-run6-b20-105-cid20-1000-snapshot	2020nov12-oc120-run6-b20-126-cid20-1174-snapshot
2020out13-oc120-run6-b20-107-cid20-972-snapshot	2020nov12-oc120-run6-b20-129-cid20-1241-snapshot
2020out13-oc120-run6-b20-107-cid20-974-snapshot	2020nov12-oc120-run6-b20-129-cid20-1240-snapshot
2020nov13-oc120-r69--b20-128-cid20-1191-snapshot	2020dez11-oc120-run7-b20-142-cid20-1365-snapshot
2020nov13-oc120-r69--b20-128-cid20-1201-snapshot	2020dez11-oc120-run7-b20-142-cid20-1366-snapshot
2020nov13-oc120-r69--b20-128-cid20-1187-snapshot	2020dez11-oc120-run7-b20-142-cid20-1367-snapshot
2020nov20-oc120-run7-b20-133-cid20-1242-snapshot	2020dez11-oc120-run7-b20-142-cid20-1368-snapshot
2020nov26-oc120-run7-b20-136-cid20-1244-snapshot	2020dez11-oc120-run7-b20-142-cid20-1369-snapshot
2020nov26-oc120-run7-b20-136-cid20-1246-snapshot	2020dez11-oc120-run7-b20-142-cid20-1370-snapshot
2020nov20-oc120-run7-b20-133-cid20-1223-snapshot	2020dez11-oc120-run7-b20-142-cid20-1371-snapshot
2020nov26-oc120-run7-b20-136-cid20-1262-snapshot	2020dez11-oc120-run7-b20-142-cid20-1372-snapshot
2020dez23-oc120-run7-b20-149-cid20-1409-snapshot	2020dez11-oc120-run7-b20-142-cid20-1357-snapshot
2020dez23-oc120-run7-b20-149-cid20-1410-snapshot	2020dez11-oc120-run7-b20-142-cid20-1358-snapshot
2020dez23-oc120-run7-b20-149-cid20-1411-snapshot	2020dez11-oc120-run7-b20-142-cid20-1359-snapshot
2020dez23-oc120-run7-b20-149-cid20-1412-snapshot	2020dez11-oc120-run7-b20-142-cid20-1360-snapshot
2020dez23-oc120-run7-b20-149-cid20-1413-snapshot	2020dez11-oc120-run7-b20-142-cid20-1361-snapshot
2020dez23-oc120-run7-b20-149-cid20-1414-snapshot	2020dez11-oc120-run7-b20-142-cid20-1362-snapshot
2020dez23-oc120-run7-b20-149-cid20-1415-snapshot	2020dez11-oc120-run7-b20-142-cid20-1363-snapshot
2020dez23-oc120-run7-b20-149-cid20-1416-snapshot	2020dez11-oc120-run7-b20-142-cid20-1364-snapshot