2021-04-16-gs180-run-b21-47-cid21-464-snapshot	2021-06-02-oc180-run-b21-76-cid21-855-snapshot
2021-04-16-gs180-run-b21-47-cid21-480-snapshot	2021-06-02-oc180-run-b21-76-cid21-857-snapshot
2021-04-16-gs180-run-b21-47-cid21-462-snapshot	2021-06-02-oc180-run-b21-76-cid21-859-snapshot
2021-04-16-gs180-run-b21-47-cid21-521-snapshot	2021-06-02-oc180-run-b21-76-cid21-861-snapshot
2021-04-16-gs180-run-b21-47-cid21-492-snapshot	2021-06-02-oc180-run-b21-76-cid21-863-snapshot
2021-04-23-gs180-run-b21-49-cid21-488-snapshot	2021-06-02-oc180-run-b21-76-cid21-865-snapshot
2021-04-23-gs180-run-b21-49-cid21-484-snapshot	2021-06-02-oc180-run-b21-76-cid21-867-snapshot
2021-04-23-gs180-run-b21-49-cid21-486-snapshot	2021-06-02-oc180-run-b21-76-cid21-869-snapshot
2021-04-23-gs180-run-b21-49-cid21-482-snapshot	2021-06-02-oc180-run-b21-76-cid21-871-snapshot
2021-04-23-gs180-run-b21-49-cid21-474-snapshot	2021-06-02-oc180-run-b21-76-cid21-873-snapshot
2021-04-23-gs180-run-b21-49-cid21-523-snapshot	2021-06-02-oc180-run-b21-76-cid21-875-snapshot
2021-04-08-oc120-run-b21-45-cid21-448-snapshot	2021-06-02-oc180-run-b21-76-cid21-877-snapshot
2021-04-23-gs180-run-b21-51-cid21-494-snapshot	2021-06-02-oc180-run-b21-76-cid21-879-snapshot
2021-04-23-gs180-run-b21-51-cid21-498-snapshot	2021-06-02-oc180-run-b21-76-cid21-881-snapshot
2021-04-23-gs180-run-b21-51-cid21-549-snapshot	2021-06-02-oc180-run-b21-76-cid21-883-snapshot
2021-04-23-gs180-run-b21-51-cid21-502-snapshot	2021-06-02-oc180-run-b21-76-cid21-885-snapshot
2021-04-23-gs180-run-b21-51-cid21-500-snapshot	2021-06-02-oc180-run-b21-76-cid21-887-snapshot
2021-04-23-gs180-run-b21-51-cid21-507-snapshot	2021-06-02-oc180-run-b21-76-cid21-889-snapshot
2021-04-30-oc180-run-b21-55-cid21-511-snapshot	2021-06-02-oc180-run-b21-76-cid21-891-snapshot
2021-04-30-oc180-run-b21-55-cid21-551-snapshot	2021-06-02-oc180-run-b21-76-cid21-893-snapshot
2021-04-23-gs180-run-b21-51-cid21-515-snapshot	2021-06-02-oc180-run-b21-76-cid21-895-snapshot
2021-05-07-oc180-run-b21-57-cid21-618-snapshot	2021-06-02-oc180-run-b21-76-cid21-897-snapshot
2021-05-07-oc180-run-b21-57-cid21-565-snapshot	2021-06-02-oc180-run-b21-76-cid21-899-snapshot
2021-05-07-oc180-run-b21-57-cid21-569-snapshot	2021-06-02-oc180-run-b21-76-cid21-901-snapshot
2021-05-26-oc180-run-b21-69-cid21-797-snapshot	2021-06-02-oc180-run-b21-76-cid21-903-snapshot
2021-05-31-oc180-run-b21-73-cid21-817-snapshot	2021-06-02-oc180-run-b21-76-cid21-905-snapshot
2021-05-31-oc180-run-b21-73-cid21-819-snapshot	2021-06-02-oc180-run-b21-76-cid21-912-snapshot
2021-05-31-oc180-run-b21-73-cid21-777-snapshot	2021-06-02-oc180-run-b21-76-cid21-913-snapshot
2021-05-31-oc180-run-b21-73-cid21-775-snapshot	2021-06-02-oc180-run-b21-76-cid21-907-snapshot
2021-05-31-oc180-run-b21-73-cid21-821-snapshot	2021-06-02-oc180-run-b21-76-cid21-909-snapshot
2021-05-31-oc180-run-b21-73-cid21-823-snapshot	2021-06-02-oc180-run-b21-76-cid21-911-snapshot
2021-05-31-oc180-run-b21-73-cid21-811-snapshot	2021-06-02-oc180-run-b21-76-cid21-914-snapshot