2020-07-13-oc120-run-b20-60-cid20-435-snapshot	2020out23-oc120-run6-b20-113-cid20-1081-gsv2-cnv
2020-07-13-oc120-run-b20-60-cid20-440-snapshot	2020out23-oc120-run6-b20-113-cid20-1082-gsv2-cnv
2020ju27-oc120-run53-b20-68-cid20-594-snapshot	2020out23-oc120-run6-b20-113-cid20-1083-gsv2-cnv
20201026-cid19-4257	2020out23-oc120-run6-b20-113-cid20-1079-gsv2-cnv
2020-09-04-oc120-run-b20-88-cid20-576-snapshot	2020out29-oc120-run6-b20-117-cid20-1100-gsv2-cnv
2020jul04-oc120-run5-b20-53-cid20-334-snapshot	2020out29-oc120-run6-b20-117-cid20-1102-gsv2-cnv
2020-09-03-oc120-run-b20-86-cid20-640-snapshot	2020out29-oc120-run6-b20-117-cid20-1103-gsv2-cnv
2020ago28-oc120-run5-b20-84-cid20-620-snapshot	2020out29-oc120-run6-b20-117-cid20-1105-gsv2-cnv
2020-09-04-oc120-run-b20-88-cid20-692-snapshot	2020out29-oc120-run6-b20-117-cid20-1106-gsv2-cnv
2020set15-oc120-run5-b20-92-cid20-829-snapshot	2020out29-oc120-run6-b20-117-cid20-1107-gsv2-cnv
2020set15-oc120-run5-b20-92-cid20-841-snapshot	2020out29-oc120-run6-b20-117-cid20-1110-gsv2-cnv
2019out10-archer-run-b19-29-cid19-4524-snapshot	2020nov10-oc120-run6-b20-125-cid20-1203-gsv2-cnv
2020ju27-oc120-run53-b20-68-cid20-541-snapshot	2020nov10-oc120-run6-b20-125-cid20-1204-gsv2-cnv
2020ago28-oc120-run5-b20-82-cid20-815-snapshot	2020nov10-oc120-run6-b20-125-cid20-1213-gsv2-cnv
2020-09-03-oc120-run-b20-86-cid20-754-snapshot	2020nov10-oc120-run6-b20-125-cid20-1214-gsv2-cnv
2020out13-oc120-run6-b20-107-cid20-994-snapshot	2020nov10-oc120-run6-b20-125-cid20-1215-gsv2-cnv
2020ago15-run55-oc12-b20-73-cid20-624-snapshot	2020nov10-oc120-run6-b20-125-cid20-1216-gsv2-cnv
2020out17-oc120-run6-b20-109-cid20-1022-snapshot	2020nov10-oc120-run6-b20-125-cid20-1217-gsv2-cnv
2020-07-13-oc120-run-b20-60-cid20-395-snapshot	2020nov10-oc120-run6-b20-125-cid20-1206-gsv2-cnv
2020jul20-oc120-run5-b20-64-cid20-469-snapshot	2020nov10-oc120-run6-b20-125-cid20-1205-gsv2-cnv
2020jul29-oc120-run5-b20-69-cid20-481-snapshot	2020nov10-oc120-run6-b20-125-cid20-1207-gsv2-cnv
2020ago15-run55-oc12-b20-73-cid20-524-snapshot	2020nov10-oc120-run6-b20-125-cid20-1208-gsv2-cnv
2020ago28-oc120-run5-b20-84-cid20-653-snapshot	2020nov10-oc120-run6-b20-125-cid20-1210-gsv2-cnv
2020-09-03-oc120-run-b20-86-cid20-657-snapshot	2020nov10-oc120-run6-b20-125-cid20-1211-gsv2-cnv
2020-09-04-oc120-run-b20-88-cid20-705-snapshot	2020nov10-oc120-run6-b20-125-cid20-1212-gsv2-cnv
2020out17-oc120-run6-b20-109-cid20-1024-snapshot	2020nov12-oc120-run6-b20-126-cid20-1163-gsv2-cnv
2020out06-oc120-run6-b20-103-cid20-936-snapshot	2020nov12-oc120-run6-b20-126-cid20-1165-gsv2-cnv
2020out06-oc120-run6-b20-103-cid20-946-snapshot	2020nov12-oc120-run6-b20-126-cid20-1168-gsv2-cnv
2020out17-oc120-run6-b20-109-cid20-1015-snapshot	2020nov12-oc120-run6-b20-126-cid20-1172-gsv2-cnv
2020out09-oc120-run6-b20-105-cid20-1000-snapshot	2020nov12-oc120-run6-b20-126-cid20-1174-gsv2-cnv
2020out13-oc120-run6-b20-107-cid20-972-snapshot	2020nov12-oc120-run6-b20-129-cid20-1241-gsv2-cnv
2020out13-oc120-run6-b20-107-cid20-974-snapshot	2020nov12-oc120-run6-b20-129-cid20-1240-gsv2-cnv