2022jun03-gs180-run2-b22-73-cid22-1210-snapshot.B22-73.CID22-1210.B502_N702.tumor.all_chroms.bam
2022jun03-gs180-run2-b22-73-cid22-1220-snapshot.B22-73.CID22-1220.B505_N705.tumor.all_chroms.bam
2022jun03-gs180-run2-b22-73-cid22-1222-snapshot.B22-73.CID22-1222.B506_N706.tumor.all_chroms.bam
2022jun03-gs180-run2-b22-73-cid22-1224-snapshot.B22-73.CID22-1224.B511_N703.tumor.all_chroms.bam
2022jun03-gs180-run2-b22-73-cid22-1226-snapshot.B22-73.CID22-1226.B508_N708.tumor.all_chroms.bam
2022jun03-gs180-run2-b22-73-cid22-1228-snapshot.B22-73.CID22-1228.B510_N702.tumor.all_chroms.bam
2022jun03-gs180-run2-b22-73-cid22-1230-snapshot.B22-73.CID22-1230.B509_N701.tumor.all_chroms.bam
2022jun03-gs180-run2-b22-73-cid22-1258-snapshot.B22-73.CID22-1258.B503_N703.tumor.all_chroms.bam
2022jun03-gs180-run2-b22-73-cid22-1266-snapshot.B22-73.CID22-1266.B513_N705.tumor.all_chroms.bam
2022jun03-gs180-run2-b22-73-cid22-1268-snapshot.B22-73.CID22-1268.B514_N706.tumor.all_chroms.bam
2022jun03-gs180-run2-b22-73-cid22-1270-snapshot.B22-73.CID22-1270.B515_N707.tumor.all_chroms.bam
2022jun03-gs180-run2-b22-73-cid22-1290-snapshot.B22-73.CID22-1290.B518_N702.tumor.all_chroms.bam
2022jun03-gs180-run2-b22-73-cid22-1298-snapshot.B22-73.CID22-1298.B520_N704.tumor.all_chroms.bam
2022jun03-gs180-run2-b22-73-cid22-1300-snapshot.B22-73.CID22-1300.B516_N708.tumor.all_chroms.bam
2022jun03-gs180-run2-b22-73-cid22-1302-snapshot.B22-73.CID22-1302.B523_N707.tumor.all_chroms.bam
2022jun03-gs180-run2-b22-73-cid22-1304-snapshot.B22-73.CID22-1304.B521_N705.tumor.all_chroms.bam
2022jun03-gs180-run2-b22-73-cid22-1308-snapshot.B22-73.CID22-1308.B522_N706.tumor.all_chroms.bam
2022jun03-gs180-run2-b22-73-cid22-1328-snapshot.B22-73.CID22-1328.B512_N704.tumor.all_chroms.bam
2022jun03-gs180-run2-b22-73-cid22-1340-snapshot.B22-73.CID22-1340.B501_N701.tumor.all_chroms.bam
2022jun03-gs180-run2-b22-73-cid22-1342-snapshot.B22-73.CID22-1342.B519_N703.tumor.all_chroms.bam
2022jun03-gs180-run2-b22-73-cid22-1354-snapshot.B22-73.CID22-1354.B524_N708.tumor.all_chroms.bam