gene	ref_seq
ALK	NM_004304.5
APC	NM_000038.6
ATM	NM_000051.4
AXIN2	NM_004655.4
BAP1	NM_004656.4
BARD1	NM_000465.4
BLM	NM_000057.4
BMPR1A	NM_004329.3
BRCA1	NM_007294.4
BRCA2	NM_000059.4
BRIP1	NM_032043.3
CASR	NM_000388.4
CDC73	NM_024529.5
CDH1	NM_004360.5
CDK4	NM_000075.4
CDKN1B	NM_004064.5
CDKN1C	NM_000076.2
CDKN2A	NM_000077.5
CEBPA	NM_004364.5
CHEK2	NM_007194.4
CTNNA1	NM_001903.5
DDB2	NM_000107.3
DICER1	NM_177438.3
DIS3L2	NM_152383.5
EGFR	NM_005228.5
EPCAM	NM_002354.3
ERCC2	NM_000400.4
ERCC3	NM_000122.2
ERCC4	NM_005236.3
ERCC5	NM_000123.4
EXT1	NM_000127.3
EXT2	NM_207122.2
FANCA	NM_000135.4
FANCC	NM_000136.3
FANCD2	NM_033084.3
FANCE	NM_021922.3
FANCF	NM_022725.4
FANCG	NM_004629.2
FH	NM_000143.4
FLCN	NM_144997.7
GALNT12	NM_024642.5
GATA2	NM_032638.5
GPC3	NM_004484.4
GREM1	NM_013372.7
HOXB13	NM_006361.6
HRAS	NM_005343.4
KIF1B	NM_015074.3
KIT	NM_000222.3
MAX	NM_002382.5
MEN1	NM_001370259.2
MET	NM_001127500.3
MITF	NM_001354604.2
MLH1	NM_000249.4
MRE11	NM_005591.4
MSH2	NM_000251.3
MSH3	NM_002439.5
MSH6	NM_000179.3
MUTYH	NM_001128425.1
NBN	NM_002485.5
NF1	NM_001042492.3
NF2	NM_000268.4
NTHL1	NM_002528.7
PALB2	NM_024675.4
PDGFRA	NM_006206.6
PHOX2B	NM_003924.4
PMS2	NM_000535.7
POLD1	NM_002691.4
POLE	NM_006231.4
POT1	NM_015450.3
PRKAR1A	NM_002734.5
PTCH1	NM_000264.5
PTEN	NM_000314.8
RAD50	NM_005732.4
RAD51C	NM_058216.3
RAD51D	NM_002878.4
RB1	NM_000321.3
RECQL	NM_002907.4
RECQL4	NM_004260.4
RET	NM_020975.6
RINT1	NM_021930.6
RUNX1	NM_001754.5
SBDS	NM_016038.4
SDHA	NM_004168.4
SDHAF2	NM_017841.4
SDHB	NM_003000.3
SDHC	NM_003001.5
SDHD	NM_003002.4
SMAD4	NM_005359.6
SMARCA4	NM_001128849.1
SMARCB1	NM_003073.5
SMARCE1	NM_003079.5
SPINK1	NM_001379610.1
STK11	NM_000455.5
SUFU	NM_016169.4
TERC	NR_001566.1
TERT	NM_198253.3
TMEM127	NM_017849.4
TP53	NM_000546.6
TSC1	NM_000368.5
TSC2	NM_000548.5
VHL	NM_000551.4
WRN	NM_000553.6
WT1	NM_024426.6
XPA	NM_000380.4
XPC	NM_004628.5
